{"pager":{"current_page":"0","total_items":"2257","total_pages":91,"items_per_page":25},"stats":{"start":1722955295,"end":1722955295,"total":0},"rows":[{"id":"3673521","bundle":"drawing_data","game":"Quick Draw","game_options":["draw_time","draw_number","winning_numbers","multiplier_number","jackpot_amount","jackpot_winners"],"bonus_number":"","alias":"/node/400","collect_time":"","date":"2024-08-06","draw_number":2739953,"draw_time":"10:36:00","jackpot":"","multiplier":2,"next_draw_date":"","next_jackpot":"","total_prizes":"","winning_numbers":["1","10","11","20","21","32","38","42","45","47","51","55","57","60","70","72","73","74","76","78"],"local_winners":[],"local_multiplier_winners":[],"national_winners":[],"national_multiplier_winners":[],"multiplier_label":"Quickdraw Power","secondary_prize_value":{"money_dots_amount":"0","money_dots_number":"70","money_dots_prizes":""}},{"id":"3673516","bundle":"drawing_data","game":"Quick Draw","game_options":["draw_time","draw_number","winning_numbers","multiplier_number","jackpot_amount","jackpot_winners"],"bonus_number":"","alias":"/node/400","collect_time":"","date":"2024-08-06","draw_number":2739952,"draw_time":"10:32:00","jackpot":"","multiplier":1,"next_draw_date":"","next_jackpot":"","total_prizes":"","winning_numbers":["4","7","24","25","35","36","38","39","41","44","49","51","56","62","63","70","71","73","75","78"],"local_winners":[],"local_multiplier_winners":[],"national_winners":[],"national_multiplier_winners":[],"multiplier_label":"Quickdraw Power","secondary_prize_value":{"money_dots_amount":"5","money_dots_number":"22","money_dots_prizes":""}},{"id":"3673511","bundle":"drawing_data","game":"Quick Draw","game_options":["draw_time","draw_number","winning_numbers","multiplier_number","jackpot_amount","jackpot_winners"],"bonus_number":"","alias":"/node/400","collect_time":"","date":"2024-08-06","draw_number":2739951,"draw_time":"10:28:00","jackpot":"","multiplier":5,"next_draw_date":"","next_jackpot":"","total_prizes":"","winning_numbers":["8","12","18","34","36","38","39","46","49","52","54","57","59","60","63","69","71","72","74","75"],"local_winners":[],"local_multiplier_winners":[],"national_winners":[],"national_multiplier_winners":[],"multiplier_label":"Quickdraw Power","secondary_prize_value":{"money_dots_amount":"5","money_dots_number":"05","money_dots_prizes":""}},{"id":"3673506","bundle":"drawing_data","game":"Quick Draw","game_options":["draw_time","draw_number","winning_numbers","multiplier_number","jackpot_amount","jackpot_winners"],"bonus_number":"","alias":"/node/400","collect_time":"","date":"2024-08-06","draw_number":2739950,"draw_time":"10:24:00","jackpot":"","multiplier":2,"next_draw_date":"","next_jackpot":"","total_prizes":"","winning_numbers":["2","7","9","13","19","20","24","32","35","37","44","54","57","59","62","63","64","70","71","80"],"local_winners":[],"local_multiplier_winners":[],"national_winners":[],"national_multiplier_winners":[],"multiplier_label":"Quickdraw Power","secondary_prize_value":{"money_dots_amount":"5","money_dots_number":"47","money_dots_prizes":""}},{"id":"3673501","bundle":"drawing_data","game":"Quick Draw","game_options":["draw_time","draw_number","winning_numbers","multiplier_number","jackpot_amount","jackpot_winners"],"bonus_number":"","alias":"/node/400","collect_time":"","date":"2024-08-06","draw_number":2739949,"draw_time":"10:20:00","jackpot":"","multiplier":1,"next_draw_date":"","next_jackpot":"","total_prizes":"","winning_numbers":["2","4","6","20","23","26","34","35","39","43","44","45","50","52","54","62","64","66","71","72"],"local_winners":[],"local_multiplier_winners":[],"national_winners":[],"national_multiplier_winners":[],"multiplier_label":"Quickdraw Power","secondary_prize_value":{"money_dots_amount":"0","money_dots_number":"02","money_dots_prizes":""}},{"id":"3673496","bundle":"drawing_data","game":"Quick Draw","game_options":["draw_time","draw_number","winning_numbers","multiplier_number","jackpot_amount","jackpot_winners"],"bonus_number":"","alias":"/node/400","collect_time":"","date":"2024-08-06","draw_number":2739948,"draw_time":"10:16:00","jackpot":"","multiplier":1,"next_draw_date":"","next_jackpot":"","total_prizes":"","winning_numbers":["1","3","9","13","14","17","21","23","30","33","38","44","45","47","53","55","56","59","70","74"],"local_winners":[],"local_multiplier_winners":[],"national_winners":[],"national_multiplier_winners":[],"multiplier_label":"Quickdraw Power","secondary_prize_value":{"money_dots_amount":"5","money_dots_number":"32","money_dots_prizes":""}},{"id":"3673491","bundle":"drawing_data","game":"Quick Draw","game_options":["draw_time","draw_number","winning_numbers","multiplier_number","jackpot_amount","jackpot_winners"],"bonus_number":"","alias":"/node/400","collect_time":"","date":"2024-08-06","draw_number":2739947,"draw_time":"10:12:00","jackpot":"","multiplier":1,"next_draw_date":"","next_jackpot":"","total_prizes":"","winning_numbers":["4","5","11","15","18","26","28","32","36","38","43","44","53","56","57","64","66","70","72","75"],"local_winners":[],"local_multiplier_winners":[],"national_winners":[],"national_multiplier_winners":[],"multiplier_label":"Quickdraw Power","secondary_prize_value":{"money_dots_amount":"5","money_dots_number":"46","money_dots_prizes":""}},{"id":"3673486","bundle":"drawing_data","game":"Quick Draw","game_options":["draw_time","draw_number","winning_numbers","multiplier_number","jackpot_amount","jackpot_winners"],"bonus_number":"","alias":"/node/400","collect_time":"","date":"2024-08-06","draw_number":2739946,"draw_time":"10:08:00","jackpot":"","multiplier":1,"next_draw_date":"","next_jackpot":"","total_prizes":"","winning_numbers":["1","3","10","12","15","20","26","27","31","32","36","42","47","52","56","58","60","61","63","73"],"local_winners":[],"local_multiplier_winners":[],"national_winners":[],"national_multiplier_winners":[],"multiplier_label":"Quickdraw Power","secondary_prize_value":{"money_dots_amount":"5","money_dots_number":"02","money_dots_prizes":""}},{"id":"3673481","bundle":"drawing_data","game":"Quick Draw","game_options":["draw_time","draw_number","winning_numbers","multiplier_number","jackpot_amount","jackpot_winners"],"bonus_number":"","alias":"/node/400","collect_time":"","date":"2024-08-06","draw_number":2739945,"draw_time":"10:04:00","jackpot":"","multiplier":1,"next_draw_date":"","next_jackpot":"","total_prizes":"","winning_numbers":["1","2","5","8","10","13","23","27","31","33","35","37","39","40","51","54","59","60","69","73"],"local_winners":[],"local_multiplier_winners":[],"national_winners":[],"national_multiplier_winners":[],"multiplier_label":"Quickdraw Power","secondary_prize_value":{"money_dots_amount":"0","money_dots_number":"73","money_dots_prizes":""}},{"id":"3673476","bundle":"drawing_data","game":"Quick Draw","game_options":["draw_time","draw_number","winning_numbers","multiplier_number","jackpot_amount","jackpot_winners"],"bonus_number":"","alias":"/node/400","collect_time":"","date":"2024-08-06","draw_number":2739944,"draw_time":"10:00:00","jackpot":"","multiplier":2,"next_draw_date":"","next_jackpot":"","total_prizes":"","winning_numbers":["7","8","11","12","16","19","20","21","24","26","33","38","41","48","52","63","66","67","69","75"],"local_winners":[],"local_multiplier_winners":[],"national_winners":[],"national_multiplier_winners":[],"multiplier_label":"Quickdraw Power","secondary_prize_value":{"money_dots_amount":"5","money_dots_number":"46","money_dots_prizes":""}},{"id":"3673471","bundle":"drawing_data","game":"Quick Draw","game_options":["draw_time","draw_number","winning_numbers","multiplier_number","jackpot_amount","jackpot_winners"],"bonus_number":"","alias":"/node/400","collect_time":"","date":"2024-08-06","draw_number":2739943,"draw_time":"09:56:00","jackpot":"","multiplier":2,"next_draw_date":"","next_jackpot":"","total_prizes":"","winning_numbers":["3","5","12","15","23","24","27","30","34","36","47","57","58","61","65","66","69","71","78","80"],"local_winners":[],"local_multiplier_winners":[],"national_winners":[],"national_multiplier_winners":[],"multiplier_label":"Quickdraw Power","secondary_prize_value":{"money_dots_amount":"5","money_dots_number":"21","money_dots_prizes":""}},{"id":"3673466","bundle":"drawing_data","game":"Quick Draw","game_options":["draw_time","draw_number","winning_numbers","multiplier_number","jackpot_amount","jackpot_winners"],"bonus_number":"","alias":"/node/400","collect_time":"","date":"2024-08-06","draw_number":2739942,"draw_time":"09:52:00","jackpot":"","multiplier":3,"next_draw_date":"","next_jackpot":"","total_prizes":"","winning_numbers":["2","4","12","18","27","29","34","36","38","39","40","42","45","46","49","50","52","54","63","79"],"local_winners":[],"local_multiplier_winners":[],"national_winners":[],"national_multiplier_winners":[],"multiplier_label":"Quickdraw Power","secondary_prize_value":{"money_dots_amount":"5","money_dots_number":"76","money_dots_prizes":""}},{"id":"3673461","bundle":"drawing_data","game":"Quick Draw","game_options":["draw_time","draw_number","winning_numbers","multiplier_number","jackpot_amount","jackpot_winners"],"bonus_number":"","alias":"/node/400","collect_time":"","date":"2024-08-06","draw_number":2739941,"draw_time":"09:48:00","jackpot":"","multiplier":3,"next_draw_date":"","next_jackpot":"","total_prizes":"","winning_numbers":["7","11","12","13","14","18","19","22","27","30","37","38","44","46","49","56","57","58","60","71"],"local_winners":[],"local_multiplier_winners":[],"national_winners":[],"national_multiplier_winners":[],"multiplier_label":"Quickdraw Power","secondary_prize_value":{"money_dots_amount":"0","money_dots_number":"44","money_dots_prizes":""}},{"id":"3673456","bundle":"drawing_data","game":"Quick Draw","game_options":["draw_time","draw_number","winning_numbers","multiplier_number","jackpot_amount","jackpot_winners"],"bonus_number":"","alias":"/node/400","collect_time":"","date":"2024-08-06","draw_number":2739940,"draw_time":"09:44:00","jackpot":"","multiplier":2,"next_draw_date":"","next_jackpot":"","total_prizes":"","winning_numbers":["1","4","7","13","15","16","20","21","30","33","36","40","48","49","56","63","65","68","69","77"],"local_winners":[],"local_multiplier_winners":[],"national_winners":[],"national_multiplier_winners":[],"multiplier_label":"Quickdraw Power","secondary_prize_value":{"money_dots_amount":"0","money_dots_number":"65","money_dots_prizes":""}},{"id":"3673451","bundle":"drawing_data","game":"Quick Draw","game_options":["draw_time","draw_number","winning_numbers","multiplier_number","jackpot_amount","jackpot_winners"],"bonus_number":"","alias":"/node/400","collect_time":"","date":"2024-08-06","draw_number":2739939,"draw_time":"09:40:00","jackpot":"","multiplier":2,"next_draw_date":"","next_jackpot":"","total_prizes":"","winning_numbers":["1","3","6","10","19","20","27","32","34","36","48","49","54","56","61","63","66","68","78","79"],"local_winners":[],"local_multiplier_winners":[],"national_winners":[],"national_multiplier_winners":[],"multiplier_label":"Quickdraw Power","secondary_prize_value":{"money_dots_amount":"5","money_dots_number":"44","money_dots_prizes":""}},{"id":"3673446","bundle":"drawing_data","game":"Quick Draw","game_options":["draw_time","draw_number","winning_numbers","multiplier_number","jackpot_amount","jackpot_winners"],"bonus_number":"","alias":"/node/400","collect_time":"","date":"2024-08-06","draw_number":2739938,"draw_time":"09:36:00","jackpot":"","multiplier":1,"next_draw_date":"","next_jackpot":"","total_prizes":"","winning_numbers":["3","11","12","14","16","17","22","30","35","40","42","47","50","53","57","58","64","68","76","78"],"local_winners":[],"local_multiplier_winners":[],"national_winners":[],"national_multiplier_winners":[],"multiplier_label":"Quickdraw Power","secondary_prize_value":{"money_dots_amount":"0","money_dots_number":"76","money_dots_prizes":""}},{"id":"3673441","bundle":"drawing_data","game":"Quick Draw","game_options":["draw_time","draw_number","winning_numbers","multiplier_number","jackpot_amount","jackpot_winners"],"bonus_number":"","alias":"/node/400","collect_time":"","date":"2024-08-06","draw_number":2739937,"draw_time":"09:32:00","jackpot":"","multiplier":2,"next_draw_date":"","next_jackpot":"","total_prizes":"","winning_numbers":["10","15","16","17","19","23","36","40","41","43","49","51","54","55","58","62","67","71","73","76"],"local_winners":[],"local_multiplier_winners":[],"national_winners":[],"national_multiplier_winners":[],"multiplier_label":"Quickdraw Power","secondary_prize_value":{"money_dots_amount":"0","money_dots_number":"43","money_dots_prizes":""}},{"id":"3673436","bundle":"drawing_data","game":"Quick Draw","game_options":["draw_time","draw_number","winning_numbers","multiplier_number","jackpot_amount","jackpot_winners"],"bonus_number":"","alias":"/node/400","collect_time":"","date":"2024-08-06","draw_number":2739936,"draw_time":"09:28:00","jackpot":"","multiplier":2,"next_draw_date":"","next_jackpot":"","total_prizes":"","winning_numbers":["2","10","13","18","24","25","26","27","29","32","47","48","49","53","55","62","65","66","71","78"],"local_winners":[],"local_multiplier_winners":[],"national_winners":[],"national_multiplier_winners":[],"multiplier_label":"Quickdraw Power","secondary_prize_value":{"money_dots_amount":"20","money_dots_number":"15","money_dots_prizes":""}},{"id":"3673431","bundle":"drawing_data","game":"Quick Draw","game_options":["draw_time","draw_number","winning_numbers","multiplier_number","jackpot_amount","jackpot_winners"],"bonus_number":"","alias":"/node/400","collect_time":"","date":"2024-08-06","draw_number":2739935,"draw_time":"09:24:00","jackpot":"","multiplier":2,"next_draw_date":"","next_jackpot":"","total_prizes":"","winning_numbers":["4","6","10","15","18","23","28","31","33","38","41","42","43","46","56","57","58","61","75","77"],"local_winners":[],"local_multiplier_winners":[],"national_winners":[],"national_multiplier_winners":[],"multiplier_label":"Quickdraw Power","secondary_prize_value":{"money_dots_amount":"5","money_dots_number":"44","money_dots_prizes":""}},{"id":"3673426","bundle":"drawing_data","game":"Quick Draw","game_options":["draw_time","draw_number","winning_numbers","multiplier_number","jackpot_amount","jackpot_winners"],"bonus_number":"","alias":"/node/400","collect_time":"","date":"2024-08-06","draw_number":2739934,"draw_time":"09:20:00","jackpot":"","multiplier":1,"next_draw_date":"","next_jackpot":"","total_prizes":"","winning_numbers":["4","9","10","17","26","33","34","35","41","48","58","60","61","68","72","73","74","75","76","77"],"local_winners":[],"local_multiplier_winners":[],"national_winners":[],"national_multiplier_winners":[],"multiplier_label":"Quickdraw Power","secondary_prize_value":{"money_dots_amount":"5","money_dots_number":"70","money_dots_prizes":""}},{"id":"3673421","bundle":"drawing_data","game":"Quick Draw","game_options":["draw_time","draw_number","winning_numbers","multiplier_number","jackpot_amount","jackpot_winners"],"bonus_number":"","alias":"/node/400","collect_time":"","date":"2024-08-06","draw_number":2739933,"draw_time":"09:16:00","jackpot":"","multiplier":1,"next_draw_date":"","next_jackpot":"","total_prizes":"","winning_numbers":["1","3","5","17","18","19","23","25","28","35","36","37","39","44","51","58","67","68","71","72"],"local_winners":[],"local_multiplier_winners":[],"national_winners":[],"national_multiplier_winners":[],"multiplier_label":"Quickdraw Power","secondary_prize_value":{"money_dots_amount":"5","money_dots_number":"38","money_dots_prizes":""}},{"id":"3673416","bundle":"drawing_data","game":"Quick Draw","game_options":["draw_time","draw_number","winning_numbers","multiplier_number","jackpot_amount","jackpot_winners"],"bonus_number":"","alias":"/node/400","collect_time":"","date":"2024-08-06","draw_number":2739932,"draw_time":"09:12:00","jackpot":"","multiplier":2,"next_draw_date":"","next_jackpot":"","total_prizes":"","winning_numbers":["4","9","11","14","15","16","18","20","26","31","35","36","37","43","49","56","59","60","74","76"],"local_winners":[],"local_multiplier_winners":[],"national_winners":[],"national_multiplier_winners":[],"multiplier_label":"Quickdraw Power","secondary_prize_value":{"money_dots_amount":"5","money_dots_number":"75","money_dots_prizes":""}},{"id":"3673411","bundle":"drawing_data","game":"Quick Draw","game_options":["draw_time","draw_number","winning_numbers","multiplier_number","jackpot_amount","jackpot_winners"],"bonus_number":"","alias":"/node/400","collect_time":"","date":"2024-08-06","draw_number":2739931,"draw_time":"09:08:00","jackpot":"","multiplier":1,"next_draw_date":"","next_jackpot":"","total_prizes":"","winning_numbers":["1","4","9","17","20","22","26","29","30","37","39","44","50","55","59","62","63","68","71","80"],"local_winners":[],"local_multiplier_winners":[],"national_winners":[],"national_multiplier_winners":[],"multiplier_label":"Quickdraw Power","secondary_prize_value":{"money_dots_amount":"5","money_dots_number":"56","money_dots_prizes":""}},{"id":"3673406","bundle":"drawing_data","game":"Quick Draw","game_options":["draw_time","draw_number","winning_numbers","multiplier_number","jackpot_amount","jackpot_winners"],"bonus_number":"","alias":"/node/400","collect_time":"","date":"2024-08-06","draw_number":2739930,"draw_time":"09:04:00","jackpot":"","multiplier":1,"next_draw_date":"","next_jackpot":"","total_prizes":"","winning_numbers":["5","9","14","16","18","28","31","42","47","50","53","56","57","65","70","71","72","75","76","80"],"local_winners":[],"local_multiplier_winners":[],"national_winners":[],"national_multiplier_winners":[],"multiplier_label":"Quickdraw Power","secondary_prize_value":{"money_dots_amount":"0","money_dots_number":"56","money_dots_prizes":""}},{"id":"3673401","bundle":"drawing_data","game":"Quick Draw","game_options":["draw_time","draw_number","winning_numbers","multiplier_number","jackpot_amount","jackpot_winners"],"bonus_number":"","alias":"/node/400","collect_time":"","date":"2024-08-06","draw_number":2739929,"draw_time":"09:00:00","jackpot":"","multiplier":1,"next_draw_date":"","next_jackpot":"","total_prizes":"","winning_numbers":["4","6","13","14","20","22","26","31","32","33","34","35","36","40","42","55","56","58","62","65"],"local_winners":[],"local_multiplier_winners":[],"national_winners":[],"national_multiplier_winners":[],"multiplier_label":"Quickdraw Power","secondary_prize_value":{"money_dots_amount":"5","money_dots_number":"03","money_dots_prizes":""}}]}